module gitlab.com/mergetb/tech/foundry

go 1.12

require (
	github.com/alecthomas/chroma v0.6.2
	github.com/coreos/bbolt v1.3.2 // indirect
	github.com/coreos/etcd v3.3.12+incompatible
	github.com/coreos/go-semver v0.2.0 // indirect
	github.com/coreos/go-systemd v0.0.0-20191104093116-d3cd4ed1dbcf
	github.com/coreos/pkg v0.0.0-20180928190104-399ea9e2e55f // indirect
	github.com/dgrijalva/jwt-go v3.2.0+incompatible // indirect
	github.com/gogo/protobuf v1.2.1 // indirect
	github.com/golang/groupcache v0.0.0-20190129154638-5b532d6fd5ef // indirect
	github.com/golang/protobuf v1.3.1
	github.com/google/btree v1.0.0 // indirect
	github.com/gorilla/websocket v1.4.0 // indirect
	github.com/grpc-ecosystem/go-grpc-middleware v1.0.0 // indirect
	github.com/grpc-ecosystem/go-grpc-prometheus v1.2.0 // indirect
	github.com/grpc-ecosystem/grpc-gateway v1.8.5 // indirect
	github.com/inconshreveable/mousetrap v1.0.0 // indirect
	github.com/jonboulle/clockwork v0.1.0 // indirect
	github.com/mergetb/embiggen-disk v0.0.0-20200514010030-1dd1ec1c9d49
	github.com/mergetb/yaml v2.1.0+incompatible
	github.com/pkg/errors v0.8.1 // indirect
	github.com/prometheus/client_golang v0.9.2 // indirect
	github.com/prometheus/client_model v0.0.0-20190129233127-fd36f4220a90 // indirect
	github.com/sirupsen/logrus v1.4.0
	github.com/soheilhy/cmux v0.1.4 // indirect
	github.com/spf13/cobra v0.0.3
	github.com/tmc/grpc-websocket-proxy v0.0.0-20190109142713-0ad062ec5ee5 // indirect
	github.com/tredoe/osutil v0.0.0-20161130133508-7d3ee1afa71c
	github.com/ugorji/go/codec v0.0.0-20190320090025-2dc34c0b8780 // indirect
	github.com/xiang90/probing v0.0.0-20190116061207-43a291ad63a2 // indirect
	gitlab.com/mergetb/tech/rtnl v0.1.10-0.20191007010639-4a31a3b4d513
	go.etcd.io/bbolt v1.3.2 // indirect
	go.uber.org/atomic v1.3.2 // indirect
	go.uber.org/multierr v1.1.0 // indirect
	go.uber.org/zap v1.9.1 // indirect
	golang.org/x/time v0.0.0-20190308202827-9d24e82272b4 // indirect
	google.golang.org/grpc v1.19.1
	gopkg.in/yaml.v2 v2.2.2 // indirect
)

replace github.com/coreos/go-systemd => github.com/mergetb/go-systemd v0.0.0-20200313205510-671be2e88c9a
